<svg width="79" height="38" viewBox="0 0 79 38" fill="none" xmlns="http://www.w3.org/2000/svg">
<path d="M74.2715 5.61417C66.8905 -1.80952 54.9424 -1.80952 47.5614 5.61417L39.9497 13.3162L32.2458 5.56777C24.8648 -1.85592 12.9168 -1.85592 5.53576 5.56777C-1.84525 12.9915 -1.84525 25.0085 5.53576 32.4322C12.9168 39.8559 24.8648 39.8559 32.2458 32.4322L34.7831 29.8803L39.9497 24.7302L47.6537 32.4786C55.496 39.3919 67.3979 38.6032 74.3176 30.7619C80.5915 23.5238 80.5453 12.7595 74.2715 5.61417ZM30.7235 22.5958L26.5716 26.7717C22.3276 31.0403 15.4079 31.0403 11.1638 26.7717C6.91971 22.503 6.91971 15.5433 11.1638 11.2747C15.4079 7.0061 22.3276 7.0061 26.5716 11.2747L34.2295 19.0696L30.7235 22.5958ZM68.6896 26.7717C64.4455 31.0403 57.5258 31.0403 53.2817 26.7717L45.5778 19.0696L53.2817 11.3211C57.7103 7.23809 64.63 7.56288 68.6896 12.0171C72.4724 16.1929 72.4724 22.5958 68.6896 26.7717Z" fill="#CA9023"/>
</svg>
