<svg width="20" height="17" viewBox="0 0 20 17" fill="none" xmlns="http://www.w3.org/2000/svg">
<path fill-rule="evenodd" clip-rule="evenodd" d="M6.29 16.0156C13.837 16.0156 17.965 9.85911 17.965 4.52085C17.965 4.3456 17.965 4.17166 17.953 3.99838C18.756 3.42733 19.449 2.71832 20 1.90705C19.252 2.23392 18.457 2.44829 17.644 2.5428C18.5 2.03772 19.141 1.24422 19.448 0.307904C18.642 0.77852 17.761 1.11066 16.842 1.28887C15.288 -0.337617 12.689 -0.416421 11.036 1.11358C9.971 2.1001 9.518 3.57099 9.849 4.97398C6.55 4.81055 3.476 3.27663 1.392 0.753222C0.303 2.59926 0.86 4.95998 2.663 6.14538C2.01 6.12667 1.371 5.95358 0.8 5.64049V5.69176C0.801 7.61461 2.178 9.27027 4.092 9.65129C3.488 9.81374 2.854 9.8373 2.24 9.72013C2.777 11.3663 4.318 12.4938 6.073 12.5263C4.62 13.6507 2.825 14.2612 0.977 14.2593C0.651 14.2583 0.325 14.2395 0 14.2011C1.877 15.3866 4.06 16.0156 6.29 16.0127" fill="url(#paint0_radial)"/>
<defs>
<radialGradient id="paint0_radial" cx="0" cy="0" r="1" gradientUnits="userSpaceOnUse" gradientTransform="translate(5.53472 30.6498) rotate(-64.4651) scale(43.4651 22.2026)">
<stop stop-color="#EDA334"/>
<stop offset="0.656821" stop-color="#CD9121"/>
<stop offset="1" stop-color="#B6862D"/>
</radialGradient>
</defs>
</svg>
